info face="Bangers Regular" size=64 bold=0 italic=0 charset="" unicode=0 stretchH=100 smooth=1 aa=1 padding=1,1,1,1 spacing=-2,-2
common lineHeight=69 base=57 scaleW=512 scaleH=512 pages=1 packed=0
page id=0 file="bangers_64.png"
chars count=98
char id=0       x=0    y=0    width=0    height=0    xoffset=-3   yoffset=0    xadvance=0    page=0    chnl=0 
char id=10      x=0    y=0    width=0    height=0    xoffset=-3   yoffset=0    xadvance=0    page=0    chnl=0 
char id=32      x=0    y=0    width=0    height=0    xoffset=-3   yoffset=0    xadvance=12   page=0    chnl=0 
char id=33      x=123  y=68   width=35   height=52   xoffset=-3   yoffset=7    xadvance=17   page=0    chnl=0 
char id=34      x=211  y=320  width=44   height=25   xoffset=-3   yoffset=5    xadvance=27   page=0    chnl=0 
char id=35      x=26   y=120  width=49   height=51   xoffset=-3   yoffset=7    xadvance=40   page=0    chnl=0 
char id=36      x=79   y=0    width=38   height=60   xoffset=-3   yoffset=3    xadvance=28   page=0    chnl=0 
char id=37      x=117  y=0    width=51   height=54   xoffset=-3   yoffset=7    xadvance=51   page=0    chnl=0 
char id=38      x=75   y=120  width=44   height=51   xoffset=-3   yoffset=8    xadvance=34   page=0    chnl=0 
char id=39      x=255  y=320  width=28   height=24   xoffset=-3   yoffset=5    xadvance=13   page=0    chnl=0 
char id=40      x=0    y=0    width=40   height=68   xoffset=-3   yoffset=-1   xadvance=21   page=0    chnl=0 
char id=41      x=40   y=0    width=39   height=68   xoffset=-3   yoffset=-1   xadvance=21   page=0    chnl=0 
char id=42      x=129  y=320  width=32   height=32   xoffset=-3   yoffset=13   xadvance=27   page=0    chnl=0 
char id=43      x=187  y=320  width=24   height=28   xoffset=-3   yoffset=23   xadvance=20   page=0    chnl=0 
char id=44      x=329  y=320  width=21   height=21   xoffset=-3   yoffset=44   xadvance=13   page=0    chnl=0 
char id=45      x=404  y=320  width=28   height=13   xoffset=-3   yoffset=30   xadvance=23   page=0    chnl=0 
char id=46      x=387  y=320  width=17   height=14   xoffset=-3   yoffset=45   xadvance=13   page=0    chnl=0 
char id=47      x=350  y=0    width=53   height=53   xoffset=-3   yoffset=7    xadvance=35   page=0    chnl=0 
char id=48      x=344  y=271  width=37   height=49   xoffset=-3   yoffset=9    xadvance=30   page=0    chnl=0 
char id=49      x=200  y=271  width=29   height=49   xoffset=-3   yoffset=9    xadvance=20   page=0    chnl=0 
char id=50      x=467  y=271  width=41   height=48   xoffset=-3   yoffset=9    xadvance=30   page=0    chnl=0 
char id=51      x=229  y=271  width=40   height=49   xoffset=-3   yoffset=9    xadvance=29   page=0    chnl=0 
char id=52      x=88   y=221  width=37   height=50   xoffset=-3   yoffset=9    xadvance=29   page=0    chnl=0 
char id=53      x=269  y=271  width=38   height=49   xoffset=-3   yoffset=9    xadvance=29   page=0    chnl=0 
char id=54      x=307  y=271  width=37   height=49   xoffset=-3   yoffset=9    xadvance=31   page=0    chnl=0 
char id=55      x=125  y=221  width=38   height=50   xoffset=-3   yoffset=8    xadvance=22   page=0    chnl=0 
char id=56      x=163  y=221  width=43   height=50   xoffset=-3   yoffset=8    xadvance=33   page=0    chnl=0 
char id=57      x=206  y=221  width=36   height=50   xoffset=-3   yoffset=8    xadvance=31   page=0    chnl=0 
char id=58      x=107  y=320  width=22   height=37   xoffset=-3   yoffset=19   xadvance=12   page=0    chnl=0 
char id=59      x=86   y=320  width=21   height=40   xoffset=-3   yoffset=20   xadvance=17   page=0    chnl=0 
char id=60      x=410  y=271  width=29   height=49   xoffset=-3   yoffset=8    xadvance=19   page=0    chnl=0 
char id=61      x=161  y=320  width=26   height=30   xoffset=-3   yoffset=28   xadvance=19   page=0    chnl=0 
char id=62      x=439  y=271  width=28   height=49   xoffset=-3   yoffset=9    xadvance=19   page=0    chnl=0 
char id=63      x=242  y=221  width=33   height=50   xoffset=-3   yoffset=9    xadvance=28   page=0    chnl=0 
char id=64      x=275  y=221  width=68   height=50   xoffset=-3   yoffset=10   xadvance=63   page=0    chnl=0 
char id=65      x=119  y=120  width=36   height=50   xoffset=-3   yoffset=8    xadvance=28   page=0    chnl=0 
char id=66      x=343  y=221  width=41   height=49   xoffset=-3   yoffset=9    xadvance=27   page=0    chnl=0 
char id=67      x=384  y=221  width=38   height=49   xoffset=-3   yoffset=9    xadvance=27   page=0    chnl=0 
char id=68      x=422  y=221  width=39   height=49   xoffset=-3   yoffset=9    xadvance=28   page=0    chnl=0 
char id=69      x=155  y=120  width=39   height=50   xoffset=-3   yoffset=8    xadvance=22   page=0    chnl=0 
char id=70      x=461  y=221  width=41   height=49   xoffset=-3   yoffset=9    xadvance=22   page=0    chnl=0 
char id=71      x=403  y=0    width=41   height=52   xoffset=-3   yoffset=8    xadvance=32   page=0    chnl=0 
char id=72      x=194  y=120  width=45   height=50   xoffset=-3   yoffset=8    xadvance=28   page=0    chnl=0 
char id=73      x=239  y=120  width=27   height=50   xoffset=-3   yoffset=9    xadvance=13   page=0    chnl=0 
char id=74      x=444  y=0    width=38   height=52   xoffset=-3   yoffset=6    xadvance=18   page=0    chnl=0 
char id=75      x=158  y=68   width=49   height=51   xoffset=-3   yoffset=7    xadvance=30   page=0    chnl=0 
char id=76      x=482  y=0    width=24   height=51   xoffset=-3   yoffset=8    xadvance=19   page=0    chnl=0 
char id=77      x=266  y=120  width=54   height=50   xoffset=-3   yoffset=8    xadvance=40   page=0    chnl=0 
char id=78      x=207  y=68   width=44   height=51   xoffset=-3   yoffset=7    xadvance=29   page=0    chnl=0 
char id=79      x=320  y=120  width=40   height=50   xoffset=-3   yoffset=8    xadvance=32   page=0    chnl=0 
char id=80      x=360  y=120  width=38   height=50   xoffset=-3   yoffset=9    xadvance=24   page=0    chnl=0 
char id=81      x=168  y=0    width=40   height=53   xoffset=-3   yoffset=8    xadvance=34   page=0    chnl=0 
char id=82      x=398  y=120  width=39   height=50   xoffset=-3   yoffset=9    xadvance=28   page=0    chnl=0 
char id=83      x=0    y=271  width=41   height=49   xoffset=-3   yoffset=9    xadvance=28   page=0    chnl=0 
char id=84      x=437  y=120  width=35   height=50   xoffset=-3   yoffset=9    xadvance=23   page=0    chnl=0 
char id=85      x=0    y=171  width=41   height=50   xoffset=-3   yoffset=8    xadvance=27   page=0    chnl=0 
char id=86      x=251  y=68   width=38   height=51   xoffset=-3   yoffset=8    xadvance=24   page=0    chnl=0 
char id=87      x=289  y=68   width=55   height=51   xoffset=-3   yoffset=8    xadvance=38   page=0    chnl=0 
char id=88      x=41   y=171  width=48   height=50   xoffset=-3   yoffset=9    xadvance=26   page=0    chnl=0 
char id=89      x=89   y=171  width=40   height=50   xoffset=-3   yoffset=8    xadvance=25   page=0    chnl=0 
char id=90      x=0    y=320  width=43   height=46   xoffset=-3   yoffset=12   xadvance=28   page=0    chnl=0 
char id=91      x=248  y=0    width=40   height=53   xoffset=-3   yoffset=6    xadvance=20   page=0    chnl=0 
char id=92      x=0    y=120  width=26   height=51   xoffset=-3   yoffset=7    xadvance=33   page=0    chnl=0 
char id=93      x=288  y=0    width=36   height=53   xoffset=-3   yoffset=7    xadvance=20   page=0    chnl=0 
char id=94      x=302  y=320  width=27   height=22   xoffset=-3   yoffset=-2   xadvance=23   page=0    chnl=0 
char id=95      x=432  y=320  width=34   height=9    xoffset=-3   yoffset=56   xadvance=26   page=0    chnl=0 
char id=96      x=283  y=320  width=19   height=23   xoffset=-3   yoffset=-2   xadvance=23   page=0    chnl=0 
char id=97      x=472  y=120  width=36   height=50   xoffset=-3   yoffset=8    xadvance=28   page=0    chnl=0 
char id=98      x=41   y=271  width=41   height=49   xoffset=-3   yoffset=9    xadvance=27   page=0    chnl=0 
char id=99      x=82   y=271  width=38   height=49   xoffset=-3   yoffset=9    xadvance=27   page=0    chnl=0 
char id=100     x=120  y=271  width=39   height=49   xoffset=-3   yoffset=9    xadvance=28   page=0    chnl=0 
char id=101     x=129  y=171  width=39   height=50   xoffset=-3   yoffset=8    xadvance=22   page=0    chnl=0 
char id=102     x=159  y=271  width=41   height=49   xoffset=-3   yoffset=9    xadvance=22   page=0    chnl=0 
char id=103     x=0    y=68   width=41   height=52   xoffset=-3   yoffset=8    xadvance=32   page=0    chnl=0 
char id=104     x=168  y=171  width=43   height=50   xoffset=-3   yoffset=8    xadvance=28   page=0    chnl=0 
char id=105     x=211  y=171  width=26   height=50   xoffset=-3   yoffset=9    xadvance=13   page=0    chnl=0 
char id=106     x=41   y=68   width=38   height=52   xoffset=-3   yoffset=6    xadvance=18   page=0    chnl=0 
char id=107     x=344  y=68   width=49   height=51   xoffset=-3   yoffset=7    xadvance=30   page=0    chnl=0 
char id=108     x=393  y=68   width=24   height=51   xoffset=-3   yoffset=8    xadvance=19   page=0    chnl=0 
char id=109     x=237  y=171  width=54   height=50   xoffset=-3   yoffset=8    xadvance=40   page=0    chnl=0 
char id=110     x=79   y=68   width=44   height=52   xoffset=-3   yoffset=7    xadvance=29   page=0    chnl=0 
char id=111     x=291  y=171  width=40   height=50   xoffset=-3   yoffset=8    xadvance=32   page=0    chnl=0 
char id=112     x=331  y=171  width=38   height=50   xoffset=-3   yoffset=9    xadvance=24   page=0    chnl=0 
char id=113     x=208  y=0    width=40   height=53   xoffset=-3   yoffset=8    xadvance=34   page=0    chnl=0 
char id=114     x=369  y=171  width=39   height=50   xoffset=-3   yoffset=9    xadvance=28   page=0    chnl=0 
char id=115     x=0    y=271  width=41   height=49   xoffset=-3   yoffset=9    xadvance=28   page=0    chnl=0 
char id=116     x=408  y=171  width=35   height=50   xoffset=-3   yoffset=9    xadvance=23   page=0    chnl=0 
char id=117     x=443  y=171  width=41   height=50   xoffset=-3   yoffset=8    xadvance=27   page=0    chnl=0 
char id=118     x=417  y=68   width=38   height=51   xoffset=-3   yoffset=8    xadvance=24   page=0    chnl=0 
char id=119     x=455  y=68   width=55   height=51   xoffset=-3   yoffset=8    xadvance=38   page=0    chnl=0 
char id=120     x=0    y=221  width=48   height=50   xoffset=-3   yoffset=9    xadvance=26   page=0    chnl=0 
char id=121     x=48   y=221  width=40   height=50   xoffset=-3   yoffset=8    xadvance=25   page=0    chnl=0 
char id=122     x=43   y=320  width=43   height=46   xoffset=-3   yoffset=12   xadvance=28   page=0    chnl=0 
char id=123     x=484  y=171  width=27   height=50   xoffset=-3   yoffset=8    xadvance=18   page=0    chnl=0 
char id=124     x=324  y=0    width=26   height=53   xoffset=-3   yoffset=7    xadvance=16   page=0    chnl=0 
char id=125     x=381  y=271  width=29   height=49   xoffset=-3   yoffset=9    xadvance=17   page=0    chnl=0 
char id=126     x=350  y=320  width=37   height=19   xoffset=-3   yoffset=11   xadvance=26   page=0    chnl=0 
char id=127     x=0    y=0    width=0    height=0    xoffset=-3   yoffset=0    xadvance=0    page=0    chnl=0 
kernings count=792
kerning first=57 second=46 amount=-1
kerning first=88 second=52 amount=-1
kerning first=88 second=54 amount=-1
kerning first=86 second=47 amount=-1
kerning first=89 second=59 amount=-2
kerning first=34 second=86 amount=2
kerning first=40 second=68 amount=2
kerning first=34 second=66 amount=1
kerning first=38 second=67 amount=2
kerning first=74 second=93 amount=1
kerning first=81 second=71 amount=-1
kerning first=65 second=55 amount=-1
kerning first=52 second=48 amount=1
kerning first=40 second=69 amount=1
kerning first=51 second=92 amount=-1
kerning first=40 second=56 amount=-2
kerning first=46 second=77 amount=2
kerning first=70 second=47 amount=-4
kerning first=34 second=70 amount=1
kerning first=91 second=71 amount=-1
kerning first=34 second=72 amount=1
kerning first=79 second=41 amount=-3
kerning first=75 second=39 amount=1
kerning first=81 second=52 amount=-1
kerning first=50 second=57 amount=1
kerning first=84 second=57 amount=2
kerning first=76 second=89 amount=-3
kerning first=55 second=75 amount=1
kerning first=40 second=76 amount=1
kerning first=68 second=77 amount=-1
kerning first=34 second=78 amount=1
kerning first=53 second=79 amount=1
kerning first=76 second=79 amount=-1
kerning first=87 second=125 amount=1
kerning first=78 second=125 amount=1
kerning first=90 second=49 amount=1
kerning first=76 second=49 amount=-2
kerning first=53 second=45 amount=1
kerning first=79 second=88 amount=-1
kerning first=40 second=80 amount=2
kerning first=53 second=81 amount=1
kerning first=40 second=82 amount=2
kerning first=70 second=83 amount=-1
kerning first=92 second=79 amount=-1
kerning first=54 second=90 amount=2
kerning first=76 second=85 amount=-1
kerning first=55 second=49 amount=1
kerning first=76 second=44 amount=2
kerning first=91 second=51 amount=1
kerning first=76 second=124 amount=-1
kerning first=81 second=54 amount=-1
kerning first=91 second=86 amount=2
kerning first=92 second=87 amount=-1
kerning first=55 second=44 amount=-1
kerning first=92 second=88 amount=1
kerning first=65 second=89 amount=-2
kerning first=42 second=90 amount=-1
kerning first=90 second=46 amount=2
kerning first=54 second=65 amount=1
kerning first=46 second=48 amount=-1
kerning first=66 second=42 amount=1
kerning first=50 second=74 amount=1
kerning first=74 second=125 amount=1
kerning first=54 second=39 amount=-1
kerning first=42 second=89 amount=-1
kerning first=39 second=89 amount=1
kerning first=77 second=33 amount=1
kerning first=55 second=51 amount=1
kerning first=84 second=74 amount=-2
kerning first=55 second=79 amount=-1
kerning first=54 second=84 amount=-1
kerning first=70 second=42 amount=1
kerning first=34 second=104 amount=1
kerning first=84 second=44 amount=-2
kerning first=124 second=81 amount=-1
kerning first=92 second=39 amount=-5
kerning first=69 second=46 amount=1
kerning first=90 second=33 amount=1
kerning first=76 second=33 amount=1
kerning first=45 second=89 amount=-2
kerning first=87 second=41 amount=2
kerning first=42 second=84 amount=-1
kerning first=66 second=88 amount=-1
kerning first=70 second=125 amount=2
kerning first=40 second=67 amount=-3
kerning first=39 second=44 amount=-9
kerning first=67 second=33 amount=-1
kerning first=123 second=67 amount=-1
kerning first=39 second=92 amount=1
kerning first=75 second=47 amount=3
kerning first=57 second=90 amount=-1
kerning first=44 second=57 amount=-3
kerning first=51 second=81 amount=1
kerning first=83 second=55 amount=1
kerning first=88 second=50 amount=2
kerning first=55 second=86 amount=2
kerning first=67 second=49 amount=2
kerning first=70 second=49 amount=2
kerning first=65 second=50 amount=1
kerning first=86 second=51 amount=1
kerning first=82 second=52 amount=-1
kerning first=76 second=53 amount=-1
kerning first=75 second=54 amount=-1
kerning first=46 second=55 amount=-1
kerning first=53 second=56 amount=1
kerning first=79 second=57 amount=1
kerning first=75 second=46 amount=3
kerning first=81 second=92 amount=-3
kerning first=84 second=58 amount=-1
kerning first=89 second=33 amount=-2
kerning first=68 second=46 amount=-2
kerning first=89 second=39 amount=1
kerning first=83 second=59 amount=-1
kerning first=80 second=33 amount=-2
kerning first=66 second=125 amount=1
kerning first=57 second=93 amount=-2
kerning first=54 second=41 amount=-1
kerning first=67 second=45 amount=-2
kerning first=77 second=92 amount=-1
kerning first=40 second=77 amount=3
kerning first=70 second=41 amount=2
kerning first=34 second=82 amount=1
kerning first=89 second=53 amount=2
kerning first=92 second=65 amount=1
kerning first=56 second=92 amount=-1
kerning first=89 second=63 amount=1
kerning first=76 second=92 amount=-2
kerning first=88 second=41 amount=3
kerning first=85 second=93 amount=1
kerning first=91 second=75 amount=1
kerning first=81 second=50 amount=3
kerning first=39 second=74 amount=-3
kerning first=124 second=67 amount=-1
kerning first=76 second=64 amount=-1
kerning first=66 second=38 amount=1
kerning first=68 second=124 amount=-1
kerning first=77 second=89 amount=-1
kerning first=52 second=52 amount=1
kerning first=83 second=57 amount=2
kerning first=88 second=46 amount=2
kerning first=81 second=87 amount=-1
kerning first=81 second=33 amount=4
kerning first=91 second=67 amount=-1
kerning first=51 second=47 amount=-1
kerning first=64 second=88 amount=-1
kerning first=79 second=46 amount=-2
kerning first=67 second=55 amount=2
kerning first=71 second=59 amount=-1
kerning first=52 second=86 amount=-1
kerning first=124 second=86 amount=-1
kerning first=90 second=55 amount=1
kerning first=67 second=57 amount=2
kerning first=80 second=77 amount=-1
kerning first=81 second=93 amount=4
kerning first=57 second=41 amount=-3
kerning first=89 second=77 amount=-1
kerning first=38 second=68 amount=1
kerning first=79 second=42 amount=1
kerning first=84 second=59 amount=-2
kerning first=123 second=56 amount=1
kerning first=46 second=50 amount=1
kerning first=81 second=84 amount=-3
kerning first=75 second=81 amount=-2
kerning first=80 second=125 amount=1
kerning first=51 second=56 amount=1
kerning first=91 second=49 amount=2
kerning first=46 second=67 amount=-1
kerning first=91 second=89 amount=2
kerning first=67 second=74 amount=-1
kerning first=46 second=81 amount=-1
kerning first=55 second=88 amount=1
kerning first=56 second=57 amount=1
kerning first=124 second=71 amount=-1
kerning first=46 second=86 amount=-2
kerning first=68 second=90 amount=-1
kerning first=65 second=44 amount=1
kerning first=76 second=57 amount=-3
kerning first=90 second=57 amount=1
kerning first=77 second=39 amount=-1
kerning first=79 second=93 amount=-1
kerning first=54 second=56 amount=1
kerning first=92 second=84 amount=-3
kerning first=68 second=92 amount=-2
kerning first=81 second=42 amount=-1
kerning first=71 second=57 amount=1
kerning first=54 second=81 amount=1
kerning first=91 second=74 amount=2
kerning first=34 second=39 amount=1
kerning first=88 second=42 amount=-1
kerning first=75 second=83 amount=-1
kerning first=39 second=45 amount=-2
kerning first=38 second=78 amount=1
kerning first=43 second=49 amount=-2
kerning first=79 second=65 amount=-1
kerning first=51 second=39 amount=-1
kerning first=65 second=33 amount=1
kerning first=77 second=44 amount=1
kerning first=82 second=51 amount=1
kerning first=46 second=71 amount=-2
kerning first=70 second=38 amount=-1
kerning first=54 second=46 amount=1
kerning first=85 second=125 amount=1
kerning first=57 second=84 amount=-2
kerning first=47 second=77 amount=-2
kerning first=52 second=81 amount=1
kerning first=55 second=125 amount=1
kerning first=91 second=57 amount=1
kerning first=84 second=33 amount=-1
kerning first=55 second=71 amount=-1
kerning first=39 second=55 amount=1
kerning first=68 second=47 amount=-3
kerning first=80 second=88 amount=-1
kerning first=65 second=49 amount=-1
kerning first=92 second=81 amount=-1
kerning first=70 second=93 amount=2
kerning first=71 second=74 amount=-1
kerning first=40 second=89 amount=-1
kerning first=50 second=49 amount=1
kerning first=84 second=49 amount=1
kerning first=123 second=90 amount=2
kerning first=48 second=47 amount=-2
kerning first=55 second=48 amount=-1
kerning first=76 second=45 amount=-3
kerning first=90 second=45 amount=-3
kerning first=47 second=51 amount=1
kerning first=89 second=51 amount=2
kerning first=81 second=41 amount=3
kerning first=81 second=46 amount=4
kerning first=92 second=54 amount=-2
kerning first=75 second=79 amount=-2
kerning first=84 second=47 amount=-2
kerning first=54 second=79 amount=1
kerning first=82 second=48 amount=-1
kerning first=92 second=67 amount=-2
kerning first=79 second=59 amount=-1
kerning first=52 second=90 amount=1
kerning first=81 second=86 amount=-1
kerning first=38 second=76 amount=1
kerning first=81 second=79 amount=-1
kerning first=69 second=93 amount=1
kerning first=66 second=55 amount=1
kerning first=89 second=47 amount=-3
kerning first=92 second=77 amount=1
kerning first=123 second=51 amount=1
kerning first=50 second=92 amount=-1
kerning first=76 second=84 amount=-3
kerning first=89 second=81 amount=-1
kerning first=75 second=44 amount=3
kerning first=81 second=125 amount=2
kerning first=45 second=57 amount=-1
kerning first=40 second=55 amount=1
kerning first=45 second=83 amount=-1
kerning first=75 second=52 amount=-1
kerning first=48 second=74 amount=-1
kerning first=84 second=125 amount=2
kerning first=76 second=39 amount=-3
kerning first=89 second=49 amount=3
kerning first=89 second=65 amount=-1
kerning first=74 second=49 amount=1
kerning first=82 second=58 amount=1
kerning first=88 second=81 amount=-1
kerning first=46 second=79 amount=-1
kerning first=89 second=44 amount=-3
kerning first=123 second=71 amount=-1
kerning first=91 second=87 amount=1
kerning first=87 second=55 amount=1
kerning first=38 second=89 amount=-1
kerning first=70 second=65 amount=-1
kerning first=51 second=84 amount=-1
kerning first=82 second=83 amount=-1
kerning first=82 second=93 amount=3
kerning first=40 second=52 amount=-2
kerning first=38 second=88 amount=-1
kerning first=45 second=74 amount=-3
kerning first=84 second=48 amount=-1
kerning first=81 second=81 amount=-1
kerning first=52 second=56 amount=1
kerning first=68 second=33 amount=-1
kerning first=38 second=84 amount=-2
kerning first=39 second=84 amount=2
kerning first=40 second=75 amount=1
kerning first=75 second=42 amount=-2
kerning first=55 second=65 amount=-1
kerning first=80 second=49 amount=2
kerning first=45 second=39 amount=-2
kerning first=40 second=48 amount=-3
kerning first=67 second=41 amount=-2
kerning first=123 second=54 amount=-1
kerning first=50 second=41 amount=1
kerning first=74 second=59 amount=-1
kerning first=92 second=89 amount=-2
kerning first=65 second=92 amount=-2
kerning first=57 second=88 amount=-1
kerning first=81 second=38 amount=2
kerning first=90 second=44 amount=1
kerning first=55 second=56 amount=-1
kerning first=82 second=44 amount=2
kerning first=88 second=67 amount=-1
kerning first=82 second=125 amount=1
kerning first=82 second=92 amount=-1
kerning first=86 second=33 amount=-1
kerning first=44 second=49 amount=-2
kerning first=123 second=50 amount=1
kerning first=53 second=84 amount=-1
kerning first=39 second=57 amount=1
kerning first=80 second=55 amount=2
kerning first=46 second=90 amount=1
kerning first=79 second=47 amount=-3
kerning first=38 second=74 amount=-1
kerning first=46 second=52 amount=-2
kerning first=55 second=57 amount=1
kerning first=40 second=70 amount=1
kerning first=40 second=79 amount=-3
kerning first=34 second=85 amount=1
kerning first=89 second=48 amount=-1
kerning first=47 second=48 amount=-2
kerning first=39 second=46 amount=-10
kerning first=65 second=87 amount=-1
kerning first=89 second=125 amount=2
kerning first=81 second=67 amount=-1
kerning first=66 second=56 amount=1
kerning first=88 second=93 amount=3
kerning first=34 second=55 amount=2
kerning first=54 second=89 amount=-1
kerning first=82 second=41 amount=2
kerning first=46 second=65 amount=1
kerning first=89 second=92 amount=1
kerning first=87 second=65 amount=-1
kerning first=76 second=63 amount=-1
kerning first=34 second=75 amount=1
kerning first=36 second=57 amount=1
kerning first=55 second=41 amount=2
kerning first=76 second=48 amount=-2
kerning first=83 second=49 amount=1
kerning first=123 second=57 amount=1
kerning first=71 second=39 amount=-1
kerning first=84 second=45 amount=-2
kerning first=80 second=65 amount=-1
kerning first=39 second=87 amount=1
kerning first=67 second=125 amount=2
kerning first=85 second=59 amount=-1
kerning first=90 second=54 amount=-1
kerning first=76 second=54 amount=-2
kerning first=70 second=46 amount=-4
kerning first=75 second=71 amount=-2
kerning first=53 second=48 amount=1
kerning first=91 second=48 amount=-1
kerning first=89 second=55 amount=3
kerning first=47 second=55 amount=1
kerning first=86 second=57 amount=1
kerning first=68 second=125 amount=-1
kerning first=123 second=88 amount=1
kerning first=76 second=87 amount=-1
kerning first=70 second=74 amount=-3
kerning first=44 second=52 amount=-1
kerning first=66 second=41 amount=-2
kerning first=86 second=93 amount=2
kerning first=87 second=59 amount=-1
kerning first=83 second=125 amount=1
kerning first=53 second=39 amount=-1
kerning first=86 second=74 amount=-1
kerning first=40 second=72 amount=1
kerning first=76 second=46 amount=2
kerning first=66 second=59 amount=-1
kerning first=81 second=56 amount=2
kerning first=61 second=57 amount=-2
kerning first=92 second=86 amount=-2
kerning first=48 second=125 amount=-1
kerning first=78 second=57 amount=1
kerning first=57 second=71 amount=1
kerning first=43 second=55 amount=-2
kerning first=47 second=52 amount=-1
kerning first=124 second=79 amount=-1
kerning first=52 second=79 amount=1
kerning first=78 second=93 amount=1
kerning first=70 second=56 amount=-1
kerning first=66 second=52 amount=1
kerning first=45 second=84 amount=-3
kerning first=38 second=70 amount=1
kerning first=70 second=77 amount=-1
kerning first=71 second=92 amount=-1
kerning first=123 second=74 amount=2
kerning first=79 second=90 amount=-1
kerning first=81 second=47 amount=1
kerning first=68 second=57 amount=1
kerning first=92 second=52 amount=-2
kerning first=40 second=66 amount=2
kerning first=68 second=42 amount=1
kerning first=82 second=45 amount=-2
kerning first=40 second=73 amount=2
kerning first=47 second=65 amount=-2
kerning first=40 second=88 amount=3
kerning first=87 second=93 amount=2
kerning first=39 second=51 amount=1
kerning first=80 second=41 amount=-3
kerning first=92 second=71 amount=-2
kerning first=51 second=89 amount=-1
kerning first=123 second=89 amount=-1
kerning first=75 second=67 amount=-2
kerning first=80 second=44 amount=-6
kerning first=88 second=71 amount=-1
kerning first=44 second=55 amount=-1
kerning first=84 second=124 amount=-1
kerning first=88 second=47 amount=1
kerning first=84 second=71 amount=-1
kerning first=66 second=49 amount=1
kerning first=75 second=93 amount=3
kerning first=75 second=50 amount=2
kerning first=54 second=50 amount=1
kerning first=54 second=86 amount=-1
kerning first=50 second=55 amount=1
kerning first=67 second=39 amount=1
kerning first=57 second=47 amount=-2
kerning first=89 second=45 amount=-2
kerning first=38 second=80 amount=1
kerning first=90 second=51 amount=1
kerning first=46 second=49 amount=-3
kerning first=68 second=74 amount=-2
kerning first=49 second=89 amount=-1
kerning first=87 second=49 amount=2
kerning first=65 second=46 amount=1
kerning first=78 second=59 amount=-1
kerning first=81 second=53 amount=1
kerning first=39 second=49 amount=1
kerning first=86 second=92 amount=1
kerning first=55 second=87 amount=1
kerning first=55 second=93 amount=2
kerning first=53 second=71 amount=1
kerning first=87 second=92 amount=1
kerning first=56 second=41 amount=-2
kerning first=90 second=41 amount=3
kerning first=90 second=50 amount=1
kerning first=76 second=41 amount=4
kerning first=76 second=50 amount=1
kerning first=92 second=57 amount=-4
kerning first=55 second=67 amount=-1
kerning first=91 second=52 amount=-1
kerning first=57 second=74 amount=-2
kerning first=65 second=124 amount=-1
kerning first=77 second=46 amount=1
kerning first=79 second=49 amount=1
kerning first=81 second=45 amount=-1
kerning first=53 second=89 amount=-1
kerning first=84 second=46 amount=-2
kerning first=55 second=81 amount=-1
kerning first=86 second=59 amount=-1
kerning first=84 second=79 amount=-2
kerning first=34 second=87 amount=1
kerning first=51 second=86 amount=-1
kerning first=79 second=44 amount=-2
kerning first=79 second=124 amount=-1
kerning first=81 second=51 amount=3
kerning first=80 second=47 amount=-4
kerning first=91 second=54 amount=-1
kerning first=91 second=55 amount=2
kerning first=71 second=52 amount=1
kerning first=52 second=92 amount=-2
kerning first=67 second=50 amount=1
kerning first=70 second=59 amount=-1
kerning first=92 second=74 amount=1
kerning first=44 second=39 amount=-12
kerning first=88 second=33 amount=2
kerning first=39 second=88 amount=1
kerning first=46 second=87 amount=-1
kerning first=88 second=45 amount=-1
kerning first=57 second=67 amount=1
kerning first=79 second=33 amount=-1
kerning first=69 second=59 amount=-1
kerning first=46 second=89 amount=-2
kerning first=82 second=84 amount=-1
kerning first=88 second=79 amount=-1
kerning first=52 second=89 amount=-2
kerning first=124 second=89 amount=-1
kerning first=67 second=71 amount=-1
kerning first=75 second=57 amount=-1
kerning first=70 second=44 amount=-4
kerning first=65 second=57 amount=-1
kerning first=71 second=56 amount=1
kerning first=70 second=92 amount=1
kerning first=48 second=93 amount=-1
kerning first=67 second=65 amount=-1
kerning first=40 second=78 amount=2
kerning first=69 second=44 amount=1
kerning first=47 second=47 amount=-19
kerning first=54 second=74 amount=1
kerning first=88 second=51 amount=1
kerning first=84 second=52 amount=-1
kerning first=85 second=49 amount=1
kerning first=72 second=41 amount=1
kerning first=82 second=46 amount=3
kerning first=90 second=48 amount=-1
kerning first=65 second=39 amount=-1
kerning first=75 second=59 amount=1
kerning first=90 second=125 amount=1
kerning first=69 second=57 amount=1
kerning first=89 second=64 amount=-1
kerning first=90 second=71 amount=-1
kerning first=88 second=55 amount=1
kerning first=88 second=83 amount=-1
kerning first=76 second=71 amount=-2
kerning first=45 second=88 amount=-2
kerning first=84 second=65 amount=-1
kerning first=79 second=92 amount=-1
kerning first=68 second=93 amount=-2
kerning first=71 second=86 amount=-1
kerning first=69 second=33 amount=1
kerning first=79 second=74 amount=-2
kerning first=38 second=69 amount=1
kerning first=71 second=41 amount=-2
kerning first=40 second=51 amount=1
kerning first=79 second=89 amount=-1
kerning first=88 second=49 amount=2
kerning first=77 second=84 amount=-1
kerning first=71 second=84 amount=-1
kerning first=86 second=125 amount=1
kerning first=87 second=47 amount=-1
kerning first=47 second=54 amount=-2
kerning first=89 second=54 amount=-1
kerning first=64 second=90 amount=-1
kerning first=39 second=71 amount=-1
kerning first=47 second=81 amount=-2
kerning first=38 second=71 amount=2
kerning first=47 second=79 amount=-2
kerning first=89 second=79 amount=-1
kerning first=38 second=87 amount=1
kerning first=123 second=77 amount=1
kerning first=65 second=41 amount=3
kerning first=91 second=65 amount=1
kerning first=74 second=33 amount=-1
kerning first=76 second=42 amount=-3
kerning first=84 second=56 amount=-1
kerning first=57 second=89 amount=-1
kerning first=55 second=54 amount=-1
kerning first=81 second=49 amount=-1
kerning first=82 second=81 amount=-2
kerning first=91 second=84 amount=2
kerning first=68 second=88 amount=-2
kerning first=75 second=33 amount=2
kerning first=46 second=53 amount=-1
kerning first=40 second=49 amount=-1
kerning first=84 second=54 amount=-1
kerning first=82 second=33 amount=2
kerning first=92 second=55 amount=-1
kerning first=92 second=53 amount=-1
kerning first=40 second=90 amount=1
kerning first=74 second=47 amount=-1
kerning first=44 second=54 amount=-1
kerning first=82 second=54 amount=-1
kerning first=55 second=43 amount=-1
kerning first=74 second=55 amount=1
kerning first=48 second=92 amount=-2
kerning first=52 second=55 amount=-1
kerning first=90 second=52 amount=-1
kerning first=56 second=52 amount=1
kerning first=90 second=93 amount=2
kerning first=76 second=93 amount=2
kerning first=76 second=52 amount=-2
kerning first=38 second=82 amount=1
kerning first=76 second=67 amount=-2
kerning first=90 second=67 amount=-1
kerning first=50 second=84 amount=-1
kerning first=54 second=77 amount=1
kerning first=65 second=63 amount=-1
kerning first=55 second=92 amount=1
kerning first=76 second=86 amount=-2
kerning first=46 second=88 amount=2
kerning first=69 second=49 amount=1
kerning first=40 second=83 amount=-2
kerning first=80 second=39 amount=1
kerning first=81 second=124 amount=1
kerning first=55 second=47 amount=-3
kerning first=54 second=51 amount=1
kerning first=88 second=44 amount=2
kerning first=75 second=51 amount=1
kerning first=83 second=41 amount=-2
kerning first=53 second=52 amount=2
kerning first=48 second=88 amount=-1
kerning first=84 second=64 amount=-2
kerning first=89 second=56 amount=-1
kerning first=47 second=56 amount=-2
kerning first=81 second=89 amount=-3
kerning first=40 second=57 amount=-1
kerning first=81 second=57 amount=-1
kerning first=39 second=67 amount=-1
kerning first=65 second=84 amount=-2
kerning first=70 second=55 amount=2
kerning first=53 second=41 amount=-1
kerning first=84 second=81 amount=-2
kerning first=40 second=84 amount=1
kerning first=39 second=86 amount=2
kerning first=92 second=49 amount=-3
kerning first=66 second=47 amount=-1
kerning first=55 second=77 amount=-1
kerning first=83 second=52 amount=1
kerning first=47 second=83 amount=-1
kerning first=82 second=79 amount=-2
kerning first=92 second=85 amount=-1
kerning first=81 second=59 amount=1
kerning first=75 second=48 amount=-1
kerning first=67 second=47 amount=-2
kerning first=85 second=47 amount=-1
kerning first=39 second=77 amount=-1
kerning first=84 second=77 amount=-1
kerning first=79 second=84 amount=-1
kerning first=66 second=74 amount=-1
kerning first=78 second=41 amount=1
kerning first=47 second=50 amount=-1
kerning first=87 second=57 amount=1
kerning first=46 second=57 amount=-4
kerning first=34 second=53 amount=1
kerning first=55 second=46 amount=-1
kerning first=78 second=49 amount=1
kerning first=38 second=72 amount=1
kerning first=75 second=58 amount=1
kerning first=52 second=39 amount=-1
kerning first=67 second=59 amount=-1
kerning first=38 second=90 amount=-1
kerning first=66 second=57 amount=1
kerning first=91 second=66 amount=1
kerning first=34 second=51 amount=1
kerning first=45 second=55 amount=-2
kerning first=83 second=47 amount=-1
kerning first=39 second=65 amount=-1
kerning first=38 second=65 amount=1
kerning first=65 second=42 amount=-1
kerning first=84 second=93 amount=1
kerning first=46 second=74 amount=3
kerning first=69 second=125 amount=1
kerning first=67 second=67 amount=-1
kerning first=92 second=48 amount=-1
kerning first=75 second=49 amount=1
kerning first=64 second=89 amount=-1
kerning first=67 second=93 amount=1
kerning first=86 second=41 amount=1
kerning first=87 second=74 amount=-1
kerning first=68 second=65 amount=-1
kerning first=38 second=73 amount=1
kerning first=91 second=81 amount=-1
kerning first=46 second=39 amount=-14
kerning first=123 second=49 amount=1
kerning first=80 second=54 amount=1
kerning first=72 second=59 amount=-1
kerning first=50 second=89 amount=-1
kerning first=71 second=89 amount=-1
kerning first=74 second=41 amount=3
kerning first=65 second=93 amount=2
kerning first=40 second=71 amount=-3
kerning first=71 second=93 amount=-1
kerning first=51 second=79 amount=1
kerning first=70 second=57 amount=2
kerning first=75 second=125 amount=1
kerning first=54 second=44 amount=1
kerning first=54 second=125 amount=1
kerning first=75 second=92 amount=1
kerning first=81 second=44 amount=3
kerning first=54 second=92 amount=-2
kerning first=39 second=47 amount=-5
kerning first=80 second=50 amount=1
kerning first=74 second=74 amount=-1
kerning first=76 second=55 amount=-1
kerning first=70 second=63 amount=1
kerning first=77 second=86 amount=-1
kerning first=45 second=90 amount=-1
kerning first=40 second=50 amount=1
kerning first=86 second=49 amount=2
kerning first=56 second=47 amount=-1
kerning first=66 second=51 amount=1
kerning first=76 second=47 amount=1
kerning first=90 second=47 amount=1
kerning first=69 second=41 amount=1
kerning first=74 second=57 amount=1
kerning first=52 second=57 amount=-1
kerning first=53 second=67 amount=1
kerning first=67 second=81 amount=-1
kerning first=89 second=71 amount=-1
kerning first=47 second=71 amount=-2
kerning first=82 second=89 amount=-1
kerning first=75 second=41 amount=5
kerning first=91 second=77 amount=1
kerning first=42 second=74 amount=-2
kerning first=77 second=93 amount=1
kerning first=47 second=84 amount=1
kerning first=87 second=51 amount=1
kerning first=55 second=84 amount=2
kerning first=89 second=74 amount=-3
kerning first=38 second=85 amount=1
kerning first=47 second=74 amount=-2
kerning first=73 second=41 amount=1
kerning first=68 second=41 amount=-3
kerning first=91 second=90 amount=1
kerning first=55 second=89 amount=1
kerning first=80 second=57 amount=2
kerning first=34 second=34 amount=1
kerning first=68 second=49 amount=1
kerning first=48 second=89 amount=-1
kerning first=123 second=65 amount=1
kerning first=91 second=88 amount=2
kerning first=51 second=41 amount=-1
kerning first=89 second=46 amount=-3
kerning first=52 second=71 amount=1
kerning first=73 second=59 amount=-1
kerning first=68 second=59 amount=-1
kerning first=91 second=79 amount=-1
kerning first=82 second=71 amount=-2
kerning first=76 second=81 amount=-1
kerning first=88 second=58 amount=1
kerning first=90 second=79 amount=-1
kerning first=61 second=55 amount=-1
kerning first=55 second=55 amount=1
kerning first=66 second=124 amount=-1
kerning first=48 second=41 amount=-2
kerning first=54 second=52 amount=1
kerning first=40 second=81 amount=-3
kerning first=124 second=87 amount=-1
kerning first=68 second=44 amount=-2
kerning first=89 second=42 amount=1
kerning first=68 second=89 amount=-1
kerning first=77 second=41 amount=2
kerning first=66 second=89 amount=-1
kerning first=81 second=39 amount=-2
kerning first=84 second=67 amount=-2
kerning first=64 second=84 amount=-2
kerning first=34 second=84 amount=2
kerning first=71 second=88 amount=-1
kerning first=70 second=33 amount=-2
kerning first=84 second=55 amount=1
kerning first=39 second=81 amount=-1
kerning first=38 second=81 amount=2
kerning first=65 second=67 amount=-1
kerning first=67 second=79 amount=-1
kerning first=81 second=58 amount=2
kerning first=86 second=55 amount=1
kerning first=38 second=66 amount=1
kerning first=40 second=86 amount=2
kerning first=84 second=41 amount=1
kerning first=52 second=51 amount=1
kerning first=89 second=57 amount=2
kerning first=69 second=55 amount=1
kerning first=89 second=93 amount=3
kerning first=65 second=71 amount=-1
kerning first=42 second=88 amount=-1
kerning first=67 second=88 amount=-1
kerning first=89 second=67 amount=-1
kerning first=46 second=84 amount=-3
kerning first=47 second=67 amount=-2
kerning first=38 second=77 amount=1
kerning first=80 second=74 amount=-4
kerning first=65 second=47 amount=1
kerning first=65 second=86 amount=-1
kerning first=53 second=47 amount=-1
kerning first=85 second=57 amount=1
kerning first=38 second=75 amount=1
kerning first=75 second=45 amount=-2
kerning first=81 second=63 amount=-1
kerning first=40 second=54 amount=-3
kerning first=47 second=86 amount=1
kerning first=80 second=46 amount=-6
kerning first=64 second=74 amount=-1
kerning first=43 second=57 amount=-1
kerning first=66 second=33 amount=-1
kerning first=68 second=84 amount=-1
kerning first=70 second=51 amount=1
kerning first=124 second=84 amount=-1
kerning first=52 second=84 amount=-2
kerning first=52 second=67 amount=1
kerning first=82 second=67 amount=-2
kerning first=88 second=125 amount=1
kerning first=75 second=55 amount=2
kerning first=87 second=33 amount=-1
kerning first=48 second=84 amount=-2
kerning first=71 second=47 amount=-1
kerning first=83 second=88 amount=-1
kerning first=57 second=92 amount=-2
kerning first=82 second=50 amount=2
kerning first=80 second=42 amount=2
kerning first=85 second=74 amount=-1
kerning first=52 second=49 amount=-1
kerning first=55 second=74 amount=-2
kerning first=40 second=65 amount=3
kerning first=88 second=48 amount=-1
kerning first=45 second=86 amount=-1
kerning first=50 second=83 amount=1
kerning first=61 second=49 amount=-2
kerning first=45 second=49 amount=-2
kerning first=46 second=54 amount=-2
kerning first=123 second=52 amount=-1
kerning first=51 second=52 amount=1
kerning first=90 second=81 amount=-1
kerning first=72 second=93 amount=1
kerning first=57 second=125 amount=-1
kerning first=38 second=79 amount=2
kerning first=39 second=79 amount=-1
